/* XPM */
static const char * const guppi_xpm[] = {
"226 104 256 2",
"  	c None",
". 	c #110E0C",
"+ 	c #738771",
"@ 	c #B4C698",
"# 	c #454B39",
"$ 	c #98A879",
"% 	c #656B4F",
"& 	c #D8E7B6",
"* 	c #978964",
"= 	c #BBA880",
"- 	c #896D4B",
"; 	c #634D3C",
"> 	c #D3C99B",
", 	c #292A21",
"' 	c #697A6A",
") 	c #9A976A",
"! 	c #483026",
"~ 	c #A8B797",
"{ 	c #D7D7AD",
"] 	c #505A4E",
"^ 	c #756C4F",
"/ 	c #899780",
"( 	c #AB996E",
"_ 	c #F4F7D0",
": 	c #AAA77D",
"< 	c #BDB88D",
"[ 	c #655C40",
"} 	c #C3D8B2",
"| 	c #89875A",
"1 	c #393B2E",
"2 	c #544C37",
"3 	c #E7D9B4",
"4 	c #ECE8BF",
"5 	c #795D3C",
"6 	c #AAA993",
"7 	c #B2C8BA",
"8 	c #CFBD8F",
"9 	c #9B988F",
"0 	c #878882",
"a 	c #BEB9A0",
"b 	c #777456",
"c 	c #D6D9C0",
"d 	c #676446",
"e 	c #897C5C",
"f 	c #48402F",
"g 	c #1C1B14",
"h 	c #797B5C",
"i 	c #372D21",
"j 	c #55533D",
"k 	c #9B9F7B",
"l 	c #988976",
"m 	c #C4C8B2",
"n 	c #5B402F",
"o 	c #5F6B64",
"p 	c #9C7C58",
"q 	c #ABAF94",
"r 	c #797C72",
"s 	c #2F211A",
"t 	c #89906A",
"u 	c #887D6E",
"v 	c #DBE8CF",
"w 	c #EEEFC0",
"x 	c #777468",
"y 	c #D4C9AD",
"z 	c #ABB8AD",
"A 	c #5C634D",
"B 	c #49413E",
"C 	c #BEC0A3",
"D 	c #676458",
"E 	c #ADAF81",
"F 	c #3B3422",
"G 	c #D8DEAC",
"H 	c #BFBF91",
"I 	c #D8DFC5",
"J 	c #CBD0B2",
"K 	c #4C533D",
"L 	c #272318",
"M 	c #C9C88A",
"N 	c #414334",
"O 	c #A68B67",
"P 	c #A4986A",
"Q 	c #AEA06F",
"R 	c #DCEED7",
"S 	c #655D50",
"T 	c #657361",
"U 	c #756D5E",
"V 	c #908868",
"W 	c #58554E",
"X 	c #888F83",
"Y 	c #947C5B",
"Z 	c #999067",
"` 	c #4E5A64",
" .	c #B4B092",
"..	c #554D47",
"+.	c #EFF0D2",
"@.	c #A1AE90",
"#.	c #BBB084",
"$.	c #9BA092",
"%.	c #80825D",
"&.	c #CCCFA0",
"*.	c #C7C0A2",
"=.	c #F3F7DF",
"-.	c #7F7555",
";.	c #4C462F",
">.	c #ADA185",
",.	c #D5D09E",
"'.	c #919E74",
").	c #A49F6A",
"!.	c #64553E",
"~.	c #B3A87C",
"{.	c #3B352E",
"].	c #444C4C",
"^.	c #E0D9AD",
"/.	c #E0E0C3",
"(.	c #313328",
"_.	c #5C5B46",
":.	c #403D3E",
"<.	c #99907A",
"[.	c #A6C0BC",
"}.	c #748680",
"|.	c #B2C19A",
"1.	c #C8B789",
"2.	c #CDDEA9",
"3.	c #7E8275",
"4.	c #BBB198",
"5.	c #706448",
"6.	c #89825F",
"7.	c #E4E8CB",
"8.	c #9A987C",
"9.	c #E8E1B0",
"0.	c #D5D1B3",
"a.	c #7E968C",
"b.	c #88744F",
"c.	c #786546",
"d.	c #14130D",
"e.	c #7E8F6C",
"f.	c #6D7350",
"g.	c #B3CEB9",
"h.	c #687C7A",
"i.	c #CEBD9C",
"j.	c #90A79E",
"k.	c #65564D",
"l.	c #C2D6C8",
"m.	c #47392C",
"n.	c #7D9083",
"o.	c #E3E7B6",
"p.	c #BAD2A4",
"q.	c #AA8274",
"r.	c #B4B981",
"s.	c #E7E1C2",
"t.	c #DFD198",
"u.	c #DFD2B5",
"v.	c #FBF7D2",
"w.	c #3C2620",
"x.	c #93816E",
"y.	c #717A78",
"z.	c #DEC29C",
"A.	c #4B5352",
"B.	c #241D16",
"C.	c #6B6C60",
"D.	c #5C5C5F",
"E.	c #705539",
"F.	c #A49179",
"G.	c #B4BFAD",
"H.	c #909991",
"I.	c #A0A795",
"J.	c #FCF8DD",
"K.	c #302C21",
"L.	c #B3AE67",
"M.	c #C6BE6C",
"N.	c #594635",
"O.	c #9E8268",
"P.	c #3E4348",
"Q.	c #887560",
"R.	c #919F8C",
"S.	c #1B1511",
"T.	c #CEC294",
"U.	c #7D876A",
"V.	c #6D6B4E",
"W.	c #919778",
"X.	c #CDD8B4",
"Y.	c #B4A991",
"Z.	c #BDC7B6",
"`.	c #A68A88",
" +	c #B4B8A9",
".+	c #E0DFAF",
"++	c #E5EFD1",
"@+	c #909081",
"#+	c #A4A08F",
"$+	c #E2EEBC",
"%+	c #4A463E",
"&+	c #ECE9CF",
"*+	c #5A645E",
"=+	c #C9D0C9",
"-+	c #C9C79E",
";+	c #7A6558",
">+	c #93825C",
",+	c #4D4B36",
"'+	c #7F6D4E",
")+	c #6F5D40",
"!+	c #403C2C",
"~+	c #DEDABE",
"{+	c #908F6C",
"]+	c #F7F2C3",
"^+	c #807567",
"/+	c #6E5E51",
"(+	c #7F6D5E",
"_+	c #F6F2D2",
":+	c #B89E88",
"<+	c #4C4C48",
"[+	c #CAB298",
"}+	c #BDD0B5",
"|+	c #725664",
"1+	c #CCD9CA",
"2+	c #30261D",
"3+	c #8A8271",
"4+	c #A39A8D",
"5+	c #90897D",
"6+	c #C9BAA1",
"7+	c #6F6557",
"8+	c #A99266",
"9+	c #9F8961",
"0+	c #807B5D",
"a+	c #3F2E23",
"b+	c #6D7365",
"c+	c #C2B181",
"d+	c #7C8986",
"e+	c #503A2F",
"f+	c #AB9983",
"g+	c #87886C",
"h+	c #765D51",
"i+	c #AAB1A8",
"j+	c #BEC1B6",
"k+	c #282525",
"l+	c #A0B0A1",
"m+	c #B5B895",
"n+	c #D0C2A2",
"o+	c #72827E",
"p+	c #FEFED4",
"q+	c #FEFEE4",
"r+	c #A3997B",
"s+	c #A4A07D",
"t+	c #CDE0C4",
"u+	c #B4B080",
"v+	c #C8C090",
"w+	c #BEC7A1",
"x+	c #A1A881",
"y+	c #C6A684",
"z+	c #DBC9A2",
"A+	c #727B63",
"B+	c #5B4D35",
"C+	c #DABE7C",
"D+	c #4F412F",
"E+	c #5C543D",
"F+	c #CCC9B0",
"G+	c #807C71",
"                                                                                                                                                                                                                                                                                                                                                                                                                                                                    ",
"                                                                                                                                                                                                                                                                                                                                                                                                                                                                    ",
"                                                                                                                                                                                                                                                                                                                                                                                                                                                                    ",
"                                                                                                                                                                                                                                                                                                                                                                                                                                                                    ",
"                                                                                                                                                                                                                                                                                                                                                                                                                                                                    ",
"                                                                                                                                                                                                                                                                                                                                                                                                                                                                    ",
"                                                                                                                                                                                                                                R                                                                                                                                                                                                                                   ",
"                                                                                                                                                                                                          =.=.++v ++7.v & /.++++++++                                                                                                                                                                                                                                ",
"                                                                                                                                                                                                      ++v w o.++G G o.w H H ,.o.o.G o.                                                                                                                                                                                                                              ",
"                                                                                                                                                                                                    $+++7.J < ,.H c+,.o.{ I.#.&.G X.X.l.                                                                                                                                                                                                                            ",
"                                                                                                                                                                                                  j+M o.]+{ r.M.~.Z L.C+o.w+Q 1.M t.&.@ 2.t+                                                                                                                                                                                                                        ",
"                                                                                                                                                                                                [.&.k L.^.o.o.4+8.) 0+x+t.o.j+t * ). .H i+I.#+                                                                                                                                                                                                                      ",
"                                                                                                                                                                                              j+$ M : | )..+o.&.g+b e {+Q ^..+ .f.- ).E u+I.o+0.                                                                                                                                                                                                                    ",
"                                                                                                                                                                                            v }+s+0+r.6 | | M.G m | !.V.>+Q > -+0+E+0+e x+|.C.H.                                                                                                                                                                                                                    ",
"                                                                      +++++.R R 7.=.                                                                                                        v R v r+b ~.r.B+0+M.9.H d 5.c.Z c+M E b )+h t ).A+e.c                                                                                                                                                                                                                   ",
"                                                            =.++v t+t+v l.=+m G.Z.t+v 7.v                                                                                                 }+@.&.9.J s+| * %.B+| 1.,.H D E+^ e * 0+5.E+_.[ e.b o j+                                                                                                                                                                                                                  ",
"                                                      v j+/.w w v I 6 X.} & i+n.3.r.p.X.t+1+q 1+I                                                                                         Z.<.g+v+w ~+I.e d D+d e c+T.H j B+5.5.-.V.f !+[ C.'+A+$.                                                                                                                                                                                                                  ",
"                                                  7.G }+~ t Z Q < r.r.x+Z k r.E 3.V.7+f.V 8.H. +R.j.F+                                                                                  v @ H.{+'+O t.~+8.E+_.F B+e * Q Z N m.[ [ ^ d f 2 b ^ # t                                                                                                                                                                                                                   ",
"                                              m R.'.'.: r.x+b V.d 0+).'.q q W.x Z b C.2 2 [ h <.3+A+3.x+6 C I                                                                           7 / {+) g+^ e O v+@+2 ;.!+F c.>+u % K.i 2 !.,+f F B+^ N.e.                                                                                                                                                                                                                  ",
"                                            7.X '.t b ^ b -.d ,+F m.2 !.0+E r.H.y.E+B+f .._.S C.S E+S 5.C.y.^+k =+                                                                      / o+l D c.'+V.d | 8+@+K s K.F ; e b D+K.!+; !.F 2+!+W S j                                                                                                                                                                                                                   ",
"                                        I.Z V r.r.) e.7+)+A 6.^ _.;.F 1 f [ | L.: t A.1 F f B+!.f.V.E+D+E+c.U.h !.$.                                                                    z E w+|.x [ [ V.V.f '+) ].K.L F 2 c.V.K.B.K f F L L ; G+N                                                                                                                                                                                                                   ",
"                                    =+l+U.] ,+B+_.0+) g+C.V.E+d 7+C.D %+N K.!+E+) r+W.C.B {.1 m.2 U 0+r W j 5.V d+/+x c                                                               v [.W.: #.,.q f.E+_.f !+f.-.W K.g i j D ;.K.m.,+i . g 2 Q...j+                                                                                                                                                                                                                ",
"                                i+@+I.X D N 1 (.!+F m.[ [ b %.7+x 0+S [ b+A.f 1 ;.c.| V x _.(.K.(.!.^ ).8.D _.b * <.V.S                                                               l.|.x+{+^ Y 8+r.x+A+A D+f E+-.f L g 2+B+_.;.2+d !+B.d.B.^ j #+                                                                                                                                                                                                                ",
"                               +/ X b+g+b % W 1 F F , K.f !+5.6.g+<.W.@+W V._.W N 2 n e g+U b+_.{.!+;.B+6.E y.2 [ -./+C.D  .                                                          t+$ k ) 6.U.V.; >+v+{+U.d !+F j W {., K.D+K K.F _.K.d.L 5.W a.                                                                                                                                                                                                                ",
"                            m #+s+s+6.G+g+d % f.D _.<+!+K.{.F !+N.c.V <.^+% _.d % <+# 2 k.-.b C.% W :.;.E+7+'+7+..E+E+7+W W 6                                                         l.l+t D 0+e e A ;.N.e Z {+d {.i f E+:.L K._.F F 2 k+S.g F d U                                                                                                                                                                                                                 ",
"                            I I.5+y.S U V.5.b V.3+W % U D.W ;.1 i F E+d G+3.0+D.k._.W S ^ S c.5+7+-.D # F 2 S E+_...f !+E+2 %+I.                                                      t+g.J s+A B+[ E+d 2 # 2 ).<.d ,+K.(._.!+L ;.[ F B+2 k+g m.%+_.$.                                                                                                                                                                                                              ",
"                          j+6 H.{+<.g+G+x S W E+V.u g+3.0 x x %+{.!+1 B+'+e.8.@+y.x S _.S j j - 3+b+/+5.D B ..b ..!.[ N ! !.!+f >.                                                    t+} } & 6 3.K !+;.E+f.0+;.'+b.7+..(.L !+F L B+j K.!.;.L B.i 2+B., K.K._.@+4.                                                                                                                                                                                                  ",
"                        j+h.K ;.f _.[ 7+h U 3.b+C.0+b 5.u H.<.G+_.B 2 1 D+B+f.{+m+I.3.x _.j 2 j d ^ g+% k.A W B+[ ..%+[ !+i f B :.q                                                   m A+b -.: < 8.%.j j 2 B+%.% 2 ; d E+1 g K.L !+m.L F 2+B.d.S.d.g S.S.g S.g B., K.N ..5+ +                                                                                                                                                                                      ",
"                      Z.R.e.' :.K.B.K.F m.!+B+B+U b d V.b Y ) g+G+b C.!.!+!+2 [ 0+~. +C $.x A.W D+..'+* @+A+k.2 W N.[ ] e+F s F m.:.6                                                   z *+..%+E+/+e G+o+V.f ,+B+^ j D+2 2 F s L B.L d.d.d.. d.d.. d.S.. . . d.S.d.g d.S.g B.F ..V.G+8.6 G.                                                                                                                                                                        ",
"                      H.j # <+..j <+K.K.k+2+k+!+D+!+j E+E+] b.'+U.8.8.g+x U j ..D+j * < 0.j+>.G+j B+,+2 e | D._.2 f N.^ _.f i , 2+i j                                                     Z.d+r V.A j ..^ d V._.1 !+[ ,+g s L . . . . . . . S.d.. S.d.. . d.. . d.. g g d.S.S.S.d.g g S.g K.k+B 0                                                                                                                                                                   ",
"                    m n.+ U.o++ D.W %+:.m.:.:.2+K.K.F ! !+,+D+_.7+e w+m j+~ H.3.b+:.2 V.Z < 0.Z.6 y.W :.F _.)+j A.B !+j B+2 (.F L B.L D+I.                                                    G.*+j _._.% C.,+D+f B.S.B.. . . . . . . . . d.L . g d.d.d.S.S.B.B.B.S.g L g g g g S.g d.. d.. d.d.d.S.B.B.(.W C.                                                                                                                                                      ",
"                    t+3.A [ 5.U Y Z g+*+*+[ o _.:.%+{.P.L K.!+!+;.d ^ Q H H w+G.#+3+G+^ /+b * #.c J $.n.D :.!+2 d W :.2+K.;.B 2+L k+L K.B 4+                                                    1+T ] ;.!+!+L S.. . d.. . . . . . . . d.S.S.s B.d.S.g L L L L K.K.k+k+L g g d.L k+L g g d.S.d.g S.S.d.d.d.d.d.d.d.d.g B.F D                                                                                                                                         ",
"                    6 U.$ W.b+D.<+F ;._...V.{+f.b h b *+C.<+:.!+{.i !+_.!.) v+{ =+J 6 H.W.D A ^ e H ^.0.z W.W {.2 B !+(.F B.F !+K.B.d.d.S.(.!+b 9 Z.c                             &+1+/.I c j+#+G+# K.S.d.. . . . . . . . d.. . . d.. d.B.L B.B.S.d.B.B.K.L k+2+L i F K.(.(.g S.g , K.{.K.L B.B.g g g S.d.. . . d.. d.. . . . g %+D x 9                                                                                                                             ",
"                    y._.% D U.8.3.U.S !.A 2 !+E+<+!.^ ^+V W.V h D.(.K.K.K.F E+6.E ,.7.c 4.E $.6.b+5.>+M -+< R.C.!+{.i {.K.L L S.d.d.. d.d.. d.d.B.(.1 f ,+2 j W _.<+W .._._.d _.<+K {.K.(.K.B.g d.. . . . . . . . . . . d.S.S.d.B.S.S.B.g g K.K.L B.B.i K.F ,+F 2+L m.,+f ,+# K.g , K.K.1 K.!+:.k+k+k+2+B.K.k+B.S.d.d.S.S.. d.. d.. . . d.k+{.C.                                                                                                                    ",
"                    H.o A E+2 E.-.b+g+G+r ^ A+x x 3.S D D D !.5.5.d d ..%+K., g f [ V 1.0.c G.i+4+t ] E+O.< &.#+x P.w.i 1 L g d.. d.S.g S.S.d.d.S.d.d.d.d.d.d.d.d.g d.d.d.d.. d.d.. d.d.d.S.S.d.d.S.d.. . . . d.S.d.B.d.g B.L 2+F L B.L L L N N.(.S.B.i !+j W N F F N.] E+%+2 f K.F {.!+j )+%.b B {.i 1 {.%+_.1 k+B.g s g B.S.. d.. d.. . d.d.. d.2+!+V.9                                                                                                           ",
"                    r % o % D.N f B+E+c.5.d ^ t $. .C =+ +z i+G+y.D ].2 j <+f (.k+K.K.!+5.Q > X.j+i+5+x D E+e r+3+D N L B.k+S.d.d.g g k+, , k+B.g g g S.g g . d.d.d.. S.. d.d.. . g d.S.. d.g d.S.d.. d.B.L g B.(.K.B.B.L s K.1 f B.K.B.K.F n D S {.g K.j 0+_.[ F i j 5.V.S m.F F f [ j )+V <.V.A B %+:.N W S W <+(.B.{.K.K.(., S.. . S.d.. . d.d.. . . S.L ,+$.                                                                                                    ",
"                    h.C.C.A V.W ;.A.:.f !+a+F ;.B+'+* = n+&++.&+/.=+Z.i+@+X b+D._.2 N , L (.;.^ #.C C 4.0 A {.f [ _.K.F g S.B.L , s K.F F , (.k+B.L B.L k+g g g g g g d.g d.d.S.S.L L g g L L (.L L g S.i j 1 !+j ;.;.!+K.N ;.,+j N 2+L i ;.[ ^ V.:.K.L E+'+o 5.!+{.F [ 2 !.[ j ..f.[ b+_.-.6.b.V -.2 m.B+e - 6.b E+L 2+....[ ..<+1 k+B.B.S.. . d.d.S.d.. d.. S.L [                                                                                                 ",
"                  =+x _.% [ ;.2 D+2 [ ;.f N 1 F K.2+2+F ;.5.) P ~.> { /.7.7.I =+Z.9 0 b+W :.F K.f _.| <  .b+_.N (.w.!+L B.B.B.i :.<+! K.2+K.F 1 (.K.(.L K.K.K.K., , K.K.L k+L (.F 1 1 K.(.(.!+F F F 1 F !+E+!+[ 5.E+j j _._.)+[ 5.c.j B.2+!+[ Q.Q 7+,+!+2 E+Z 0+g+C.;.N F f W Q.3+V d V.2 5.s+< :+Z S F m.!.e '+| d :.2+f F D+S b _.<+%+<+(.k+B.S.k+L g d.d.. d.. . S.;.0                                                                                           ",
"                  G.o %+# # K.2+K.s ! f (.m.F (.!+F K.F F , i 2+F N.;.^ P ~.v+9.&+_+v =+m H.G+C.A.a+(...b b A D N K.2+K.i K.2+(.!+f E+F F m.F ! ;.;.%+(.B.f F 1 N ;._.j N f F 2 2 2 f m.f D+f 1 ;.d k.j !+!+^ L.5+2 f m.e %.h [ _.{+u {.i K.- ,.l Q.V.!+K.E+:+,.< 4+b _.j ^ W | < 8.G+F s B+-.{+P l ^ ,+F a+2 N.- b 5.2 D+;.!+B+-.b W _.,+F %+_.,+L k+d.. g d.d.d.g d.d.B.(.f.                                                                                      ",
"                  }.%+1 % D C.W f *+b+C.S ,+..[ B ;.%+!+F !+F i (.(.K.2+(.1 m.B+-.9+Q c+-+J  +q q R.G+*+..m.D+D+D+F L F i 2+, s (.F F B.L w.N ,+!.h d B+!+D+j ,+D+E.V.E+2 m._.^ V.A f f B+;.f )+5.b.Z 0+;.F E.~.: E+N.b >.<.g+b 8+-+ .U (.a+E.( : O ^ f F D+) C+i.a -.[ 2 - u ) 1.).0+F L 2+E.~.P 9+V.!.,+B+B+[ [ c.c.!.[ f a+)+Y c.b !.;.F ;.c._.;., L g S.k+K.k+k+S.S.. d.. B.!+                                                                                  ",
"                  I.` o 3./ R.@+e R.:  .G.@.Z.C i+R./ G+3.y.D W ..W j W D.K ,+{.(.K.F m.D+[ 5.-.{+k x+E 8.o <+{.F 2+K.L 2+F K.B.L F s L B.B.F N 5.h d B [ ; E+[ 2 ;.E+[ D+e+!.)+[ % D+;.f !+2 e | * >+0+_.F n Q : )+[ Y.4.6.<.^+>.^.m+r+j ,+c.r+Z l d f m.A '+= -+~.S D+m.;+8.: >.0+2 !+B.K.E+Q ( -.B+i F m.B+[ B+;.B+m.i a+B+b.O.b.b.[ ! j !.5.^ [ N ;.(.N N !+K.L g g S.S.. d.. S.L D                                                                             ",
"                  r # ,+f.| | g+0+-.0+Z * {+) ).E ~. .m+m+0.J }+ +#+d+/ r o+h f.D.A 2 A D.W % S D d d )+| Z g+f.<+B !+:.B+_._.j d f _.5.N B+b f.j N.g+s+( g+c.) k '+'+>+b 5.[ E.b )+F F L w.c.9+-.)+N.N.5.d d - 5.!.)+O 6.)+c.| P c+#.h E+2 b.H r.e E+!.-.g+| ~.l 5.c.f 2 b.q.r.H [ 2 ,+{.!+2 - g+;.D+F , F f F f F i s B.! D+E+N.5.E.[ f n !.B+; ,+f !.d V.!.f !+i 2+B.d.S.. d.S.. . . L D                                                                         ",
"                  R.o o <+%+<+,+!+K ;.2 E+_.E+d _.[ V.0+>+x+= 1.m+r.> J o.7.t+I c Z.l.6 i+i+@.I.9 3.D % D.[ [ /+j ..m.E+..[ -.b 0+) Z V.'+[ >+x+q g+5+1.v+4.-+m C  .q [+< e [ ^ e e A D+f ^ V 6._.n _.V Q ).-.[ ;.; 0+u V U _.;+c+{ Y % /+U %.Q = g+W. .1+G.g+) g+G+(+8.2 [ ~.C Y.g+h+f+8.% -.-.e E+%+D+e+,+f 2 B+2 !+m.L L i F B+D+_.5.)+c.E+B+!+!.5.b e 9+^ B+E+f m.f K.S.g L g B.. . . . . i b                                                                   ",
"                  A # _.m.!+1 f F K.F K., 2+F K.K.K.i m.f 2 2 [ 5.)+-.e Z P c+*.T.^.~+0.{ { 0.~+I c Z.j+6 W.G+7+2 {.i !+B+2 d 5.b 6.e | * U b 1.9.> : r+E #.,.^.,.< z.6+Y d 5.g+8+>+-.[ _.p : k b f.%.P V Z V.W [ Z {+g+-.r+~.H w+Q g+Z >.m W.u ).<.-+o._+-+U.5.7+) 1.J W./+V O b ).#+,.&.V ^ ^ ^ % h b %.0+h ;.j 2 !+F N i 2+K.K.2+n B+E+f F 2+m.N.[ '+E.D+N.[ E+5.5.d m.(.g B.K.B.S.S.. . . . d.B.K $.                                                            ",
"                  o K N # 2 ] _._.A j N 1 N 1 N ;.1 1 1 1 !+N (.F !+1 B+j E+d ^ c.{+* ( ~.).E <  .v+u+: P 6.%.^ f F i B.s i i !+!.B+d k.e -.d '+< 4.u+4+E < Q <.8+Y.1.{ *.{+E >.: r+| b [ !.b.V F.* d ^ 0+)+d [ %.c+Z 5.E+e = < r+b.b ( ,.-+Z D -.4.t..+w -+b ,+[ l ^.4 .+r+b -.3.:+,.^.9.< 7+[ 7+x.0.{ F+m+8.2 f ,+F i !+F F (.s !+f 5.;.F B.S.L ;.!+!+F s i a+i !.-.E.;.F B.K.(.s , B.d.. . . . . d.d.k+D+G+                                                      ",
"                  o P.{.!+K.m.j k.S 2 N.# ;.F !+F !+f !+f ,+;.,+,+N j <+2 _.j E+j !._.S /+S b ;+G+b U -.S E+..E+W E+K.1 K.K.k+B.s K.2+F f F f F e+)+[ e O h V G+-.e b 5 0+e 0+V.e O U.U ^ 2 m.>+e ^ e g+| d [ N.^ e [ ;.f !.>+) U A 5.-.e 6.7+m.{.D+Y 8 G F.E+B.a+9+~+,.> -+j+H.H C X.9./.J <.^ -.c+4 4 9.0.e j K.2+%+f 2+(.f !+(.D+_.[ 2 L g S.i 2 [ D+i i i g L F B+[ m.2+F a+!+!+F K.g d.. . . . . . . . . B.B H.                                                ",
"                  l+o+T b+C.b+b+b D _.j ,+f ,+!+,+N f f %+<+<+_./+*+C.C.+ x G+r 0 u I.#+9 9 X #+H.H.@+d+5+U.0 ^ f.W ,+j [ C.V._.<+<+f ,+D+(.K.L K.i i m.!+m.j 2 !+f !+F !+F i !+2 E+2 !+B+;.F ! B+2 E+c.%.V.!+F K.K.!+N K.1 ! m.j _.j ;.!+E+f.g+j {.[ * x+5.B B.(.Q.y+8.3+{ 4 o./.+.w w o.> : d V c+4 9.3 9+!.m.K.!+j E+A 2 2 x V...d ;.K.K.B.g g n V.)+j F 2+2+2+!+f i K.F F L F ;.F !+K.B., g . . . . . . . . . S.K.                                              ",
"                  m f.A N ;.N D+:.B B W D.C.y.o @+0 X $.q I.q  +=+J X.=+1+v +.v ++_+++=.q++.=.+.&+=.&+v c m 4.0 [ E+j <+!.0+^+@+g+9 l+@+0 7+j B {.(.:.N F i i i 1 (.L L L K.L , 2+L B.g L s 2+B.F F i m.!+m.g B.S.d.S.B.g d.g B.L s K.B.K.f ; d N.1 i N.E+..S ..!+D+b...9+-+F+-+^.7.=.&+s./.<./+r+[+n+T.c+S <+j d _._.!...'+@+9 V 0+!+N ,+%+%+j :.;.!.D+;.D+1 i K.K.s B.B.L K., L F F ! 2 !+F 1 L g . . . . . . . . . . 2+D                                         ",
"                    *+N , 1 _.*+A 3.C.0+t V W.@+V V $.#+E $.Y.m+{ F+J { .+w .+4 s.w &+w =.=.J.7.7.7.n+r.5+* g+0+[ j B+B+2 [ b | {+Z ( #.P e x ) 3+t 8.<.W.0 b D d S <+F W # 2 7+A+<+<+# !+N ;.,+F f ;.j 5.D f !+{.K.2+L B.L g g K.F L g B.F ; ;.;.!+F F !+)+A+6.U N i f d 1./.H ,.4 _++.H  .6 g+Z P M 8 < W.u+0 g+| D ;.B+)+Z = x ;.;.[ Q.s+6 l 0+_.F 2 E+;.,+m.2+K.K.d.g L L g L g S.F F i F ,+L g g . d.d.. . . . . . . . S.<+#+                                  ",
"                    '.*+# A V.%.0+b t g+{+8.) ) k ).u+<  .> H u+u+) W.Z E ~.~.:  .Q u+r+1.#.6  .Z : I.#+4+$.l+I.$.3+f.B m.2 C.3+G+r+f+s+0+l V 8.m+m+C -+-+a 6 0 8.8.C.x 3+4+q a  .R.) 5+U.3+3+g+d G+~.: g+V [ D (+^+..x V ] f F i D+f s L !+j j 2 !+i K.K...-.0+G+_.!+m.Q.J /.H F+_ _ +. .G+W.q :+: l #..+c ~+c J m #+[ B Q.>.4.x.W ;.;+1.H Q 6.j e+f F F ;.!+m.K.B.B.g 2+K.F B.g L L K.B.K.L L (.d.g L d.. . . . . . . . . . . . B.(.C.I.                          ",
"                    d+_.].N 1 F _.F ..E+2 E+..j E+j /+b U x.c...W B+W B+..[ _.d U b e U G+d 0+@+| i+=+J I c 7.v j+<.b :.B ;.E+%.8.<.s+l 3+4+s+4.a < ~+~+C -+Y.m+< @+4+s+ .,.H : v+{ m+m+: 6  .x+#+6 v+0.m+r | {+8.4+ .#+< 4+g+D !+;.f s L L ! j E+f F F i ! :.[ '+E+a+D+( s.7.X./.o.+.o.: q J I 0.j+X G+P u..+s.4 F+$.Q.5.x.6  .3+S B+G+<.l 0+D+!.E+F B+5.,+;.B+s 2+s B.F F i K.K.d.S.B.S.d.B.i B.L L L g L d.. . . . . . . . . . . . . B.i X                       ",
"                    U.T o K <+j _.j ,+W <+j ;.# ,+E+j 2 [ j E+E+W 2 [ D k.C._.7+U 0+G+W.8.i+J I 1+/._ =.=.]+$+.+< g+W f {.i j ^ V | e >+u+w+4.|.> > &.{ c+C M 6 : -+J y E >.~.m+v+8 w+T.r+E ~.v+&.^.^.-+H s+8.< a ,..+0.{ G ,.m+U.Z F.o K.B.g B.m.{.i a+K.e+d b 5+k.K.F E.> w w 4 I  .~.@.z+_ _ =.o.6 ^+P J &+v.]+s.3 C (+O.Y.#+g+2 ;.e >+d u Q.j B+B+U Q.V.f B.L g B.K.f F K.i S.S.d.. . S.g 2+g S.L , g d.g . . . . . . g S.k+d.. . d.. d.d.g h                   ",
"                    I.t %.f.b U b b+b h b d W % j j B N.:.,+B+[ D V.V.j b -.^+g+#+6 J ~+R =.=.q+q+J._+]+u.#.> &.j+: g+[ N :.j /+G+Z r+m+T.#.w+z+0.{  .m+w+Y.< m+E *.7.{ &.*.0.~+{ { &.4.: <.Y.,.u.{ ^.c+s+M  .,.{ ^.9.^.^.{ > > F+< H >+j :.2+L N D+K.K.w.2+B+/+e x S D b+8.u.o.^.w 0.i+~.y _ J.=.4 G.8.I.0.]+J.J._+s.y+3.( < >.S K.m.E+V e 0+b B+!.U (+)+^ !+2+B.s 2+2+w.F i B.S.S.. d.d.B.2+g g K.L g S.d.g d.. . . d., W @+5+C.%+d.d.. . . . S.L ^+              ",
"                    Z.C.j ,+!+f _.W S d W % [ # D D j j _.E+E+..j )+d 7+x 4+m+I /.++=.J.J.q+q++.s.,.Y.>+<.~.J 9.~+a V j f 2 !.^ 5.5.V l ( 4+>.> -+F.m+v+#.6 m+0.,.&.G t./.t..+^.s./.^.X.Y.#.,.0.9.^.#.-+&.T..+^.3 .+,.z+.+t..+{ ~+> < t 0+E+F K.w.N.;.K.B.(.a+A b N.B+b 9+Z -+9.o./._+m k > +.p+v.o.s. .V [+9.4 v.]+y ).P > : ) d K.K.E+6.t <.7+2 D+c.Z u /+j !+F f !+K.K.2+B.B.. . . . g B.B.s 2+F F B.S.B.B.d.. . . {.;+4+'+h+6+i+(.g d.. . d.d.d.d.k+W           ",
"                      i+o *+D D.E+^+D [ d A ..2 _.j [ W ..j A S x 3+X s+*.c /.+.4 w _ J._+s.v+Z 6.G+<.6 G.c 7.~+4.<.0+S P.!.W 7+^ ] )+>+V >+r+u+P < m 6+F+J F+c > y c +.7.7.4 7.o..+-+F+^./.7.s.^.-+,.~+0.4 _ 4 .+T.T.&.^.F+,.o.{ -+{ 8.7+C.D+L K.i i {.:.; d 2 F N 2 ;+@+#.f+u+^.s._+&+m { _+J.v.7.~+m+@.~.i.^.u.~.<.^ p : Y.8.X B {.;.[ e t Z x D !.Y Q 0+..F ;.E+N.F L B.S.S.S.. . B.2+g s %+2 ..[ :.i k+g S.. . S.N.{+e+. B.n 5.[ k+B.d.. S.S.S.S.B.S.F         ",
"                      z / d+b+d !...d E+<+.._.j ..W k.7+7+^+^+4+m+C j+< G o.4 _+_ v+4.1.Y.6./+b G+#+F+7.s.s.F+~. .9 8.6 G+U d 5.7+0+[ b '+V.>+G+Z : #.w+M < { 0.w+^.4 ^.9.^.o.9.y H u+< { 9.^.a ,.> ^.u..+]+9.9.,.*.{ z+.+4 ,.-+,.> *.r.V 0+b :.%+:.(.!+!+2 N.!+!+!+f ..6.4.i+r+Y.9._+p+_ &+_+v./.4 &+I &.~ E r+Q s+r+U G+* Z >.~.8.) C.E+f B+E+* ( b+..n 5.;.:.f ,+j f i B.L g S.. S.K.s s F !.G+d S V.j B (.L S.d.g {.Q.S.. . . . n k+L S.. g S.g g d.d.S.B       ",
"                      i+T % j m.!+F ..k.E+D r r @+3.5+q I.: s+< { .+.+^.,.M > #.F.6.^ [ -.^+0 w+c ++c &. .s+: r+8.F.q m+s+g+x -.7+)+U ^ 2 ;.W 7+'+l F.k V e Z c+H M 8 < s+Y.M *.v+ .H *.*.> Y.T.F+&..+s.4 ^.&.: n+o.{ 0./.&+0.#.f+,.y *.<.5+U S [ k.f m.m.F B+b C.2 [ ..* > -+F+^./.J.q+p+v._ u.4 0.9././.F+: Z ) V @+0+V.e -.'+V  .( m+m+V [ !+F )+) 4+b+E+5.2 !.^ E+;.B+2+K.(.d.S.i !+# %+N.5+m Y.a  +G+U S 1 L S.a+D+q.D.. . . . D+K.B.{.S.w., k+. . d.d.S.r     ",
"                        X *+h.d+U d+u 9 W.W.t r 8.#+q Y. .0 r+~.6 >.{+G+C.V.d _.E+_._.U <.i+0.y m *.u+g+(+V @+#+>. .4.6 W.4+8.%.U V.b ..B+2 ..5.0+%.0+6.b u >+$.>.~.W.8+s+) ) ).).@+Z E {+r+m+0.9.4 0.c ,.@.>.v+F+3 9./.s.4 T.>.) #.6+6 r+r+F.A N.%+D+F !+!+:.)+-.W ; ^ u 1.u.^.~+4 J._+_+_ v./.^.{ 7.]+&+_ c i+5+| U e | 0+5.d 5.B+h c+1.&.a @+o f m.6.( Z j E+E+b -.U 5.2 F s S.s F _._.,+b n+-+J { 0.j+6 U j (.S.(.(.- n+<+. . k+; k+K...%+%+P.. . . d.d., G+    ",
"                        [.% _.*+j [ E+E+b d f.6.h h -.5.[ 5.[ j B+E+j m.d _.E+A D x #+q j+/..+r.: t e b G+8.a a j+ .#+#+r+r+G+h b b B+_.2 ;._.,+E+^ d d V.E+2 5.5.U U '+g+6.3.k 9+0 | G+%.| <.M C ,.H m+).u+r+< *.0.9.9.s.a Q #+6 #.F+: Y.<.V Q.h [ {.D+f F [ _.!.d Q.^+>.y /.4 4 ]+&+v._++._ +.u./.4 ]+4 v.v._ /.F+6 f+<.5+x.G+^ j 1 f V.).t.^.F+3+V.j ; 6.^ F ;.!.e 0+'+^ f L S.K.!+j 2 _.e #.{ ~+/.~+/.C V ..F B.B.s a+O.i.^+|+`.m.K.{.7+U f L d.S.B.1 {.<+      ",
"                          H.].{.N <+2 !.B+B+_.,+!+!+!+{.i m.:.m.{.;.!+2 D V.3.I.i+j+c 0.&.< ) 0+V.| 0 #+m c 7.C q #+< 4+W.g+u V 3.[ _.m.m.2 A.a+!+%+E+j N 2+K.{.f ,+!+f B+d b e 0+r b G+x (+<.q P {+{+8.<.t q a a u.^.0.a V 4+G.&.6 C = y j+@+5+U B+!+{.e+2 W ;.;.n ;+| = 0.{ { I &+J.p+v.=.+.s.I j+y C  .6+H v+T.C { { /.u.m  +3+U.^ j F ;.^ P u.0.9 7+j 2 5.[ m.D+B+G+l 5+S K.L 2+D+[ U D ) 6+a { c I /.0.@+_.F S.B.K.s a+/+/+h+D+L B...|+b+] (., ..*+W <+        ",
"                            d+o _.S N 2 N # f f {.m.i F {.K.F !+f N.A.[ ^+@.H -+&..+T.u+).-.d W 7+W.,.^.J > 4.Q q  .: E u+E I.) -.o %.G+4+z j+z l+i+    I.d+n.n.e.T b+K A.f 2 !+!+e+# !.)+b V s+8.G+^ b+e V L.v+v+M : < ~.q &.,.F+-+-+w+> 1.V U !.f m.n *+B+^ f.A [ 5.0+= z+~+s.]+_+_ _+w _+v.y 0.,.^./.,.&.E I.{+7+[ b 9+c+*.0.0.{ R.| D E+j _.| = ,.6 G+D U S <+,+i c.= Y [ f k+! _.[ g+@+Y.1+,.0./.+++./. +f.{.L k+S.i ! i s F B.s %+/+G+0 r r S U E+#           ",
"                              A+<+] E+{.<+!+K.(.(.{.i {.i A.B 1 :.2 G+0 m+*.-+0.M x+k ^ W d D g+i+{ .+{ T.C C 6 ~.s+: &.6 m+s+g+r <.9                       ++R $+7.v I c R.j.X b+W j 1 !+F ;.V.'+d f.U V.g+Q.Z @+l 4. +m 0.C F+9.^.0.~+a q 6.G+A+%+f E+;+% j 5 u 0 l H C *.3 &+_+v.J.J._+s.&+_+s.*. +H J C x+8.{+{+u /+b u F.Y. .y T.< q 4+3+/+..k.5.s+-+6 G+b G+x S W c.U _.2 !+(.n b u s+m s.&+7./.7.&+&+&+G+_.:.F <+{.F a+f a+D+W u #+: r+E 8._.%+k.            ",
"                              1+@+D.,+(.L k+!+K.1 (.{.B %+<+%+2 k.A+k ).E L.L.* [ 2 N.j D U W.-+y -+ .P s+: < r.E #.F+w+u+s+8.P g+) /.                        +++.+++.o.7.^.{ w+x+{+t U B L s K.i K.i f 2 B+_.V.[ 0+) f+) ~.< &.I .+&.,.,.6 h U !.7+..;.N.5._.d u u P 4.,.{ o._+_+J.q+J.+.&+&+w &+0.m F+~+C < x+: W.0+5.^ b.V.0+e V e V : #.4.H 6 5+D D ^ u 6 0+Z #.E @+j ^ O g+f a+^ ) E I.< ~+s.&+7.7.&+c j+$.G+D d x 6.3.x - u 0 Y.w+H  +X g+E+{.W               ",
"                                  @+P.:.].# B A.%+:.j j ;.j [ k.%.) 8.e t b 2 _.:.2 A U s+F+J *.s+V -.V u+Z x+Q f+-+M ~.Z Z 8.'.|.1+                            w ^.^.M : ) 6.>+f.d _.[ D.S b+<+2+L , B.S.k+K.m...5.c.%.e 5.t < C+^.a ).s+P -.b G+V ^ <+1 i ;.9+Y.j+*.C { s.&+_+J._+v._+4 4 &+7.+./.++&+s./.~+X.-+r.W.g+^ | -.b f.^ b %.b ^ b (+*  .r+4+g+V.7+V.7+* s+<.3+l 4. .D ,+E.| #.s+< /.0.u.&+++&+/.j+m+q 0 6 &.*.m F+ . .C y C { w+G+S C.y.                ",
"                                  Z.T C.3.x C._.B E+%+D+D.C.5.0+U b V ^ ..S W S h 3+W.: F+-+: Z 6.U.).k F.) 3+u H = <.W.-.0+6 ~.~+                              v t+j+i+~ $.X W.V G+e.9 Y.k U ..:...{.B.B.g g B.2+F E+W !.W k.>+r.8 ^.< 4+r+h '+{+0+b S f K.{.'+< ,.3 4 &+v.J.v._+_+v.J.7.J c 7.4 4 7./.o.7.4 +..+&.m  .R.b -.u g+h {+e %.{+^ b S ;+| * -.E+E+)+T h -.X #.m *.G.u D b | 0+).u+F+o.++&++.++/.I 0.*.Z.v+0./././.X.0.~+m+: '+2 j b+                    ",
"                                    R.R.k %.% j ;.j W d j [ j 2 [ V.] B+d x e f.G+l e e (+-.u t V x+{+Z u U f+: 8.e ^ D ^ | 6+                                  v ++_ 9.s.&.{ J &.: s+r+6.-.b _.j F K., k+K.K.K.L K.B.B.;.B+)+j V.8+a >.s+m+6.-.-.b ^ b 7+h d >+>.> .+_+v.J._+w _+_ &+&++.s.&+_+~+{ ~+I { > M ^.{ v+< 1.-+< ).>.u+6 s+'.{+| -.h V.U Z Q.^ B+_.^ -.V D <.*.~+{ j+H.{+^ b t E T.=+I _++.&+&+v 7.X.H a &.c { /.&+7.J H h 2 <+D                         ",
"                                      I.D.A D ] j [ <+f 2 ,+S E+j )+0+G+W ^ b U U b W ^ -.x r+) g+0+U u 6  .4+r+3+b+;+g+#+c                                     I ++/.C 6+-+H  .{+U A+Z ^+-.5.,+f !+F %+_.W U W B i (.B.S.!+;.F 2 -.Y k = F.^+x /+'+0+; D f+@+| r+6+~++.]+J._+&++.{ ++&+_+_+s.7.&+0.I /.H z #+: : ) Q ~.Q Q Q r+~.> v+s+Z {+x -.G+5+b r d _.5.'+-.6.| $.,.c /.*.g+<.U d 0+L.#.F+,.I ++I &+/.&+c i+a ~+=+< J J ,.x+%+_.b+                            ",
"                                        Z.T A d # B+j ;.,+j [ % D V.U [ [ W E+_._.!.h h e 6.0+5.[ E+^ {+u e U e 5+<.q =+                                        t+m I ~+: G+| x ^ V.V.-.0+d f E+,+!._.U Q.| ^ [ E+!+{.{.(.k+s i {.2 d b 5+u+* ;+| l u | <.Q.E s+6.Y.,.4 w v.s.I _+J.J._+4 &+&+v.s.7.y /./.7.9..+&.H  .Q P >+0+b.b.Z Z Z * 8+) * * >+e u 5.V @+{+{+b+r+4.6+~+~+a U ^ ,+^ -.6.:  .< c /.c J { 1+r.&.J J /.}+F+ .V.f *+                                ",
"                                            [.d+U.V.;.f :.:.n N.j E+f f f N._.A U b '+0+V.A 2 [ k.)+/+[ !.S 8.a X.v                                             v I m : 3+3.u u Z I.Z U E+2 d [ 3.u b 5+<.h ..2 2 E+D 2 1 K., B.i F N.c.8.#+u 3+'+l 3+6.>+>.:+*. .y 0.&+&+&+&+_+J.J._+/.&+_+&+_+s.7._+++=.&+0.y u+Q  .= 1.< P {+>+P P ).Z Z Q P Z Z Z * 0+Z * ^ '+6. +0./._+0.#+@+E+K.B+0+{+| g+x+-+-+H F+C { i+m /.I I > Z <+;.                                    ",
"                                              z R._.B !+j m.(.(.F f 1 m.j % d d _.^ _.j !.!.A 7+d A x [ 0 <.0.++                                                1+m #+s+H.~.&.J < s+b+_._.V.U <.< 4+V @+k ;+_.; U P U :.F {.!+k+B.i B D 0+Z u {+g+<.l g+t :+m+y n+{ 3 s.]+J.v.v.J.J.J._+v.&+&+4 ++_+J.+.w =.+.7.w+i+k : <.Q 8.u -.u e <.g+>+V | V <.e 5+| h V 0+% u ~.m &+~+m  .l _., i 5.3+Z $.W.C 6 #+4.r+6 u+{ X.{ : b j *+                                      ",
"                                                    o {...] D+2 B %+d j U b ] D [ 2 j E+V.V.S V._.U 4.                                                          t+Z.m F+7.o.+.{ 5+^ b ^+G+u x.Y.u 8.8.9 V 0+;+g+^+k.d ..S )+%+K.2+2+2+f ,+!.7+/+U u <.5+5+< < &./.s.~+&+v.J.J.v.J.J.q+J.J._+_+_+=.+._+&+&+/.~+F+<  .4.: s+Q O 6.6.- | ) Z Z <.Y 9 <.>.5+U V <.<.{+{+>.0./.~+X.*.#+x (.K.a+b.s+4+).6 Y.: #+h b '+r+: f.D T                                           ",
"                                                       +d+g+U.r V.d f.D % h b V.D.2 _.G+$.#+l+G.c                                                                 R _+_ J._ ^.<.V G+<.4+#+Y.8.U G+Y.x.V g+0+{+g+[ [ V.F.e D E+f K.s L i B ..S Q.U 3+<.r+{+$.:+6 v+u.^..+4 _+J._+J.J.J._+J.J.+.&++.v.=.&+/.F+0.*.I.8.W.{+9 F.@+<.F.4.4.y j+a >.f+Y. .4.r+Z 0+-.^+^ >+x+y 0.0.I c G.^+i B.B.;.V 9 <.4+V U [ E+;.N ;.j D.                                              ",
"                                                                  m j+w+) | U.W.6.'.G./.                                                                          7.&+_ 9.1.) W.$ k m+*.u+V b b+Z Z | <.~.W.V 5.b+6.8.Z ^ d h _.N i B.B.F !+! B !.7+b 0+Z s+k Q  .T.,..+.+w &+/.&+_ J._+_+=.=.7.v.J.J.J.J.+.7.&+&+s./.I 4 4 4 9.^.3 t.^.4.) 5+^+e -.- b -.C.V.D 7+5.W.~.H ~+4 &+G.7+F S.d.S.a+E+B+_.E+f F F f _.o                                                   ",
"                                                                                                                                                                  } G ^.q <.s+I.j+0.C 8.b 7+e 9+u 3+r+8.V D !._.3+Y.<.D x @+S _._.%+N {.B.L K.s D+{.D+B+d (+U.r+a 0.u.^.^.4 &+~+s.&+_+_+_++._+J._+J.J.J._+J._+J./.0.C 1.&.#.>.V 0+b 0+%.0+G+V.U U ^+X $.>.m+#.g+U.x x.0 4.0.G 0.6 <+K.L d.. d.S.L s F (.;...h.                                                      ",
"                                                                                                                                                                  I.C  .m C J s.^.E W.V.0+e Q.0+r+: Q V V.b _.g+s+).0+u : 6.U V.D.D 3.y.P.k+L K.i m.B ,+N.[ -.g+u+a > -+n+{ &+4 s.s.s.4 _++.+.v.J._+_+J.=.J.J._+o.s.c < &.v+ .) V h ^ U.r+6 s+@.m+: Y.Q $.) u '+u 3+k g+r+m+~.{+V.K.B.S.S.d.d.S.k+k+1 _./                                                           ",
"                                                                                                                                                                  l+J o.++]+w m ).V.h l x.-.-.s+ .u+0+% ^ 7+x+Y.F.0+b Y.{+C.b V.f. +    =+}.].k+k+(.(.f ].E+7+0+e ~.< s+c+Y.6+9.^.a { .+~+v s.s.&+s.=.J.J.=.+._+&+/.J 0. .H < f+@.I.{+R.~.: < u+T.5+'+b 6.u | 0+8.).0+C.G+Q.C.;.F 2+d.. S.g K.`                                                                     ",
"                                                                                                                                                                  i+g.7.w .+M V b r | ) 8.x+Y. .: Z V.b k  +-+~.U ;+P Z -.x -.r+m+          =+d+].K.i i !+D+f 2 d 5.5.'+'+>+) Q P s+r+4.T.-+T.H .+~+7._+4 _+_ &+w 4 4 9.I J { 4 9.s.< P P : ).e Z u c.h 6.g+{+b [ _.^ G+{+g+V.2+g d.S.g P.                                                                          ",
"                                                                                                                                                                  G.i+-+{ >.V 0+V 8.V 5+C ^.*.~.G+-.U. .J 0.>.6.u l Z ^+^+e %.6                 =+a.A.(.L K.i f 2 j /+[ b+U ^ b G+( W.u+#. .< < -+> ^..+w +.4 _+o.^.F+^.w ^.,.> ,.m+P X E s+<.6.b b %.^+g+).^ % D U | W.0+j N S.g K.k+L                                                                             ",
"                                                                                                                                                                    [.z F.@+g+u <.H.6 J /.4 Y.g+G+<.j+/.0.: 8.V #+#+u b G+(+@.c                     j+h.P.:., !+!+f [ /+b 7+/+-.3.b.G+0+F.6 4+ .-+4.0.&.-+7.s.4 &+/.m  .< ~+{ 0.0.J u+: 8.-.u G+<. .F.<.Z ^ _.[ G+k * ^ 2 F i B., P.                                                                                ",
"                                                                                                                                                                    @.W.W.8.f+q W.n+o.s.0.~.3+r+m 0.o.*.s+0+e s+6 Y 0+<.Z i+a                         $.o !+:.{.K.F F E+!.b _.d )+A [ '+b '+V >+>.< 4.c+> > v+/.^.,.,.@.Y.1.0.T.< P * k u+#.6+t.Q b.f.E+B+b+e V.0+[ f N N.` }.T                                                                                     ",
"                                                                                                                                                                    =+j.z i+z F+F+7.w m r+V 4+J J o.F+6 3+9 >.C 4+g+5+<.@.0.                          I.o K N N ;.N %+2 f ! f m.D+,+!+j )+7+U u F.>.f+k s+4.a F+H -+6+4.C Y.#+<.F.$.r+v+y > :+3+/+5.!.U U -.f._.f !+] y.n.                                                                                          ",
"                                                                                                                                                                      |.H w+c /.++7.|.: 0 #+7.v 7.F+s+6 m+4.H E s+Z W.: j+/.                          R.] ;.!+,+j S U U.0+C.j _.S .._./+U 9  +0 3+^+G+G+b 6.* r+: s+>. . .< m $.r+E x+r.6 8.@+u x x b x [ 2 ;.<+x a.                                                                                                ",
"                                                                                                                                                                      v z } w &+o.0.C j+I 7.&+_  .Z W.E a C s+ .@.: 4+|.v                             h.<+f D.-.5+X e g+x ;+5.% U 0+Z 8.<.T. .<.0+b+^ /+A l 5+R.5+{+$.r+f+) Y.< 6 <.6.6.g+* t 5.[ ^ W b+Q.}.$.                                                                                                      ",
"                                                                                                                                                                        7 w+o.v ^.X.I 7._+=.+.< x+W.x+I.&.x+k x+#.: i+0.                              + *+] )+V.| V l k u ^ C.5.%.W.Z @+).4.: @+E+_.2 D+B+d 6.-.f.e 3+(+b /+^ '+'+V.E+E+E+_.m._.S U $.l+                                                                                                            ",
"                                                                                                                                                                          t+o.$+o.&+$+=.J.w c+<.E C ,.J < E u+:  .H -+                              i+% A _._.0+W.>.: | f.6.-.| ) | 8.V P 6+X.          P.{.f B [ _.E+[ f !+F {.!+!+{.:.P.[ o+j.7                                                                                                                   ",
"                                                                                                                                                                          t+& +.++=.q+q+&+< <. +m 0.0.m+s+8.6 q  .J                                  +o A d ,+c.= E 3+r+{+| {+{+) k ~.@+a ~+                    z I.3+' b+<+P.].D.o n.z                                                                                                                             ",
"                                                                                                                                                                            l.o.+._ _ 7.*.>.4.^.0.F+M  .8.m+u+m 0.s.                                R.f.W j ,+,+e : L.< Z -.-.V Q ~.f+w+z+/.                                                                                                                                                                        ",
"                                                                                                                                                                              |.G G 4 F+9 C ~+m w+0.q <.x+4+H -+t+                                  o+] A [ !+f c.r+< P 0+U 3+P H.= <.c+3 v                                                                                                                                                                         ",
"                                                                                                                                                                                 +*.I.Y.6+I v y m 6 #+$.I.C &.X.                                  #+b+[ ] D+<+!+B+F.l g+u r+9 4+H u 4+z.~+I                                                                                                                                                                         ",
"                                                                                                                                                                                  I.&.1+_ +.s..+4.q :  .w+/.s.                                    X o ] j [ W S <.3+V V <.4. +m+a {+4+< Z.                                                                                                                                                                          ",
"                                                                                                                                                                                  [.J 7.+.++/.Z.j+q q J I 7.                                      o+y.j _.D 5+l+~ 0 {+$.F+F+j+F+4+/ a C F+                                                                                                                                                                          ",
"                                                                                                                                                                                    t+R _ 9.J H < w+{ I 7.                                        o+' ' H.      @.n.s+i.-+T.0.-+m+ .< C F+                                                                                                                                                                          ",
"                                                                                                                                                                                    R R ++G < H w+t+.+/.                                          j.z c           l+G.0.i+J ~+m+a {  +J                                                                                                                                                                             ",
"                                                                                                                                                                                      v t+a C -+0.I I                                                             7 w+G.c /.0.C m C ~ =+                                                                                                                                                                            ",
"                                                                                                                                                                                      c I.~ H w+2.7.                                                              Z.~ X.{ { F+-+n+F+T.c                                                                                                                                                                             ",
"                                                                                                                                                                                        ~ 6 $.X.I                                                                   p.X.2.0.#+ .-+C  +                                                                                                                                                                              ",
"                                                                                                                                                                                          6 G.1+                                                                    l.p.v &.w+F+C w+                                                                                                                                                                                ",
"                                                                                                                                                                                                                                                                    l.z Z.6  +Z. +=+                                                                                                                                                                                ",
"                                                                                                                                                                                                                                                                    7 ~ e.l+0.m+m                                                                                                                                                                                   ",
"                                                                                                                                                                                                                                                                    t+j.W.H J =+                                                                                                                                                                                    ",
"                                                                                                                                                                                                                                                                    R [.j.J =+                                                                                                                                                                                      ",
"                                                                                                                                                                                                                                                                      v 2.l.                                                                                                                                                                                        ",
"                                                                                                                                                                                                                                                                                                                                                                                                                                                                    ",
"                                                                                                                                                                                                                                                                                                                                                                                                                                                                    "};
